Visualización de datos en R
…
filter() permite mantener filas en función de los valores de las columnas.

El primer argumento es el marco de datos.

El segundo argumento y los subsiguientes son las condiciones que deben ser verdaderas para mantener la fila.

filter, ejemplo

Por ejemplo, podríamos encontrar todos los vuelos que salieron con más de 120 minutos (dos horas) de retraso

Código

flights |> filter(dep_delay > 120)

# A tibble: 9,723 × 19
    year month   day dep_time sched_dep_time dep_delay arr_time sched_arr_time
   <int> <int> <int>    <int>          <int>     <dbl>    <int>          <int>
 1  2013     1     1      848           1835       853     1001           1950
 2  2013     1     1      957            733       144     1056            853
 3  2013     1     1     1114            900       134     1447           1222
 4  2013     1     1     1540           1338       122     2020           1825
 5  2013     1     1     1815           1325       290     2120           1542
 6  2013     1     1     1842           1422       260     1958           1535
 7  2013     1     1     1856           1645       131     2212           2005
 8  2013     1     1     1934           1725       129     2126           1855
 9  2013     1     1     1938           1703       155     2109           1823
10  2013     1     1     1942           1705       157     2124           1830
# ℹ 9,713 more rows
# ℹ 11 more variables: arr_delay <dbl>, carrier <chr>, flight <int>,
#   tailnum <chr>, origin <chr>, dest <chr>, air_time <dbl>, distance <dbl>,
#   hour <dbl>, minute <dbl>, time_hour <dttm>
…
& para indicar “y” (verifica ambas condiciones)

| para indicar “o” (verifica al menos una de las condiciones)

Ejemplo

Vuelos del primero de enero

Código

enero1=flights |> filter(month == 1 & day == 1)
enero1

# A tibble: 842 × 19
    year month   day dep_time sched_dep_time dep_delay arr_time sched_arr_time
   <int> <int> <int>    <int>          <int>     <dbl>    <int>          <int>
 1  2013     1     1      517            515         2      830            819
 2  2013     1     1      533            529         4      850            830
 3  2013     1     1      542            540         2      923            850
 4  2013     1     1      544            545        -1     1004           1022
 5  2013     1     1      554            600        -6      812            837
 6  2013     1     1      554            558        -4      740            728
 7  2013     1     1      555            600        -5      913            854
 8  2013     1     1      557            600        -3      709            723
 9  2013     1     1      557            600        -3      838            846
10  2013     1     1      558            600        -2      753            745
# ℹ 832 more rows
# ℹ 11 more variables: arr_delay <dbl>, carrier <chr>, flight <int>,
#   tailnum <chr>, origin <chr>, dest <chr>, air_time <dbl>, distance <dbl>,
#   hour <dbl>, minute <dbl>, time_hour <dttm>
…
Más adelante aprenderemos un amplio conjunto de funciones que se pueden usar para manipular diferentes tipos de variables.

Por ahora, nos quedaremos con el álgebra básica, que nos permite calcular la ganancia, cuánto tiempo recuperó en el aire un vuelo retrasado y la velocidad en millas por hora:

mutate(), ejemplo

Código

flights|>mutate(
gain = dep_delay - arr_delay,
speed = distance / air_time * 60
)

# A tibble: 336,776 × 21
    year month   day dep_time sched_dep_time dep_delay arr_time sched_arr_time
   <int> <int> <int>    <int>          <int>     <dbl>    <int>          <int>
 1  2013     1     1      517            515         2      830            819
 2  2013     1     1      533            529         4      850            830
 3  2013     1     1      542            540         2      923            850
 4  2013     1     1      544            545        -1     1004           1022
 5  2013     1     1      554            600        -6      812            837
 6  2013     1     1      554            558        -4      740            728
 7  2013     1     1      555            600        -5      913            854
 8  2013     1     1      557            600        -3      709            723
 9  2013     1     1      557            600        -3      838            846
10  2013     1     1      558            600        -2      753            745
# ℹ 336,766 more rows
# ℹ 13 more variables: arr_delay <dbl>, carrier <chr>, flight <int>,
#   tailnum <chr>, origin <chr>, dest <chr>, air_time <dbl>, distance <dbl>,
#   hour <dbl>, minute <dbl>, time_hour <dttm>, gain <dbl>, speed <dbl>

Dónde colocar las nuevas columnas?

De forma predeterminada, mutate() agrega nuevas columnas en el lado derecho de su conjunto de datos, lo que dificulta ver el resultado.

Podemos usar el argumento .before para agregar las variables al lado izquierdo

Código

flights|>mutate(
gain = dep_delay - arr_delay,
speed = distance / air_time * 60, .before = 1
) 

# A tibble: 336,776 × 21
    gain speed  year month   day dep_time sched_dep_time dep_delay arr_time
   <dbl> <dbl> <int> <int> <int>    <int>          <int>     <dbl>    <int>
 1    -9  370.  2013     1     1      517            515         2      830
 2   -16  374.  2013     1     1      533            529         4      850
 3   -31  408.  2013     1     1      542            540         2      923
 4    17  517.  2013     1     1      544            545        -1     1004
 5    19  394.  2013     1     1      554            600        -6      812
 6   -16  288.  2013     1     1      554            558        -4      740
 7   -24  404.  2013     1     1      555            600        -5      913
 8    11  259.  2013     1     1      557            600        -3      709
 9     5  405.  2013     1     1      557            600        -3      838
10   -10  319.  2013     1     1      558            600        -2      753
# ℹ 336,766 more rows
# ℹ 12 more variables: sched_arr_time <int>, arr_delay <dbl>, carrier <chr>,
#   flight <int>, tailnum <chr>, origin <chr>, dest <chr>, air_time <dbl>,
#   distance <dbl>, hour <dbl>, minute <dbl>, time_hour <dttm>
…
También puedes usar .after para agregar después de una variable,

Tanto en .before como en .after puedes usar el nombre de la variable en lugar de una posición.

Uso de .after

Por ejemplo, podríamos agregar las nuevas variables después de day:

Código

flights|>mutate(
gain = dep_delay - arr_delay,
speed = distance / air_time * 60, .after=day ) 

# A tibble: 336,776 × 21
    year month   day  gain speed dep_time sched_dep_time dep_delay arr_time
   <int> <int> <int> <dbl> <dbl>    <int>          <int>     <dbl>    <int>
 1  2013     1     1    -9  370.      517            515         2      830
 2  2013     1     1   -16  374.      533            529         4      850
 3  2013     1     1   -31  408.      542            540         2      923
 4  2013     1     1    17  517.      544            545        -1     1004
 5  2013     1     1    19  394.      554            600        -6      812
 6  2013     1     1   -16  288.      554            558        -4      740
 7  2013     1     1   -24  404.      555            600        -5      913
 8  2013     1     1    11  259.      557            600        -3      709
 9  2013     1     1     5  405.      557            600        -3      838
10  2013     1     1   -10  319.      558            600        -2      753
# ℹ 336,766 more rows
# ℹ 12 more variables: sched_arr_time <int>, arr_delay <dbl>, carrier <chr>,
#   flight <int>, tailnum <chr>, origin <chr>, dest <chr>, air_time <dbl>,
#   distance <dbl>, hour <dbl>, minute <dbl>, time_hour <dttm>
…
¿qué columnas se conservan?

Por ejemplo, la salida del siguiente código contendrá solo las variables dep_delay, arr_delay, air_time, gain, hours y gain_per_hour:

Código

flights |> mutate(
gain = dep_delay - arr_delay,
hours = air_time / 60,
gain_per_hour = gain / hours,
.keep = "used") 

mutate() ¿qué columnas se conservan?

# A tibble: 336,776 × 6
   dep_delay arr_delay air_time  gain hours gain_per_hour
       <dbl>     <dbl>    <dbl> <dbl> <dbl>         <dbl>
 1         2        11      227    -9 3.78          -2.38
 2         4        20      227   -16 3.78          -4.23
 3         2        33      160   -31 2.67         -11.6 
 4        -1       -18      183    17 3.05           5.57
 5        -6       -25      116    19 1.93           9.83
 6        -4        12      150   -16 2.5           -6.4 
 7        -5        19      158   -24 2.63          -9.11
 8        -3       -14       53    11 0.883         12.5 
 9        -3        -8      140     5 2.33           2.14
10        -2         8      138   -10 2.3           -4.35
# ℹ 336,766 more rows
…
Hasta ahora hemos aprendido sobre las funciones que trabajan con filas y columnas.

dplyr se vuelve aún más potente cuando agrega la capacidad de trabajar con grupos.

En esta sección, nos centraremos en las funciones más importantes: group_by(), summarize() y la familia de funciones slice.

group_by()

Utilice group_by() para dividir su conjunto de datos en grupos significativos para su análisis:

Código

flights |> group_by(month)

# A tibble: 336,776 × 19
# Groups:   month [12]
    year month   day dep_time sched_dep_time dep_delay arr_time sched_arr_time
   <int> <int> <int>    <int>          <int>     <dbl>    <int>          <int>
 1  2013     1     1      517            515         2      830            819
 2  2013     1     1      533            529         4      850            830
 3  2013     1     1      542            540         2      923            850
 4  2013     1     1      544            545        -1     1004           1022
 5  2013     1     1      554            600        -6      812            837
 6  2013     1     1      554            558        -4      740            728
 7  2013     1     1      555            600        -5      913            854
 8  2013     1     1      557            600        -3      709            723
 9  2013     1     1      557            600        -3      838            846
10  2013     1     1      558            600        -2      753            745
# ℹ 336,766 more rows
# ℹ 11 more variables: arr_delay <dbl>, carrier <chr>, flight <int>,
#   tailnum <chr>, origin <chr>, dest <chr>, air_time <dbl>, distance <dbl>,
#   hour <dbl>, minute <dbl>, time_hour <dttm>
…
prop en lugar de n

Puede variar n para seleccionar más de una fila o, en lugar de n = , puede utilizar prop = 0.1 para seleccionar, digamos, el 10% de las filas de cada grupo. Por ejemplo, el siguiente código busca los vuelos que sufren mayor retraso al llegar a cada destino:

Código

flights |> group_by(dest) |>
  slice_max(arr_delay, prop = 0.1) |> 
  relocate(dest,arr_delay)

# A tibble: 33,982 × 19
# Groups:   dest [102]
   dest  arr_delay  year month   day dep_time sched_dep_time dep_delay arr_time
   <chr>     <dbl> <int> <int> <int>    <int>          <int>     <dbl>    <int>
 1 ABQ         153  2013     7    22     2145           2007        98      132
 2 ABQ         149  2013    12    14     2223           2001       142      133
 3 ABQ         138  2013    10    15     2146           2001       105      106
 4 ABQ         137  2013     7    23     2206           2007       119      116
 5 ABQ         136  2013    12    17     2220           2001       139      120
 6 ABQ         126  2013     7    10     2025           2007        18      105
 7 ABQ         118  2013     7    30     2212           2007       125       57
 8 ABQ         117  2013     7    28     2038           2007        31       56
 9 ABQ         114  2013    12     8     2049           2001        48       58
10 ABQ         109  2013     9     2     2212           2007       125       48
# ℹ 33,972 more rows
# ℹ 10 more variables: sched_arr_time <int>, carrier <chr>, flight <int>,
#   tailnum <chr>, origin <chr>, air_time <dbl>, distance <dbl>, hour <dbl>,
#   minute <dbl>, time_hour <dttm>

Agrupación por múltiples variables

Se puede crear grupos utilizando más de una variable. Por ejemplo, podríamos crear un grupo para cada fecha:

Código

daily <- flights |> group_by(year, month, day)
daily

# A tibble: 336,776 × 19
# Groups:   year, month, day [365]
    year month   day dep_time sched_dep_time dep_delay arr_time sched_arr_time
   <int> <int> <int>    <int>          <int>     <dbl>    <int>          <int>
 1  2013     1     1      517            515         2      830            819
 2  2013     1     1      533            529         4      850            830
 3  2013     1     1      542            540         2      923            850
 4  2013     1     1      544            545        -1     1004           1022
 5  2013     1     1      554            600        -6      812            837
 6  2013     1     1      554            558        -4      740            728
 7  2013     1     1      555            600        -5      913            854
 8  2013     1     1      557            600        -3      709            723
 9  2013     1     1      557            600        -3      838            846
10  2013     1     1      558            600        -2      753            745
# ℹ 336,766 more rows
# ℹ 11 more variables: arr_delay <dbl>, carrier <chr>, flight <int>,
#   tailnum <chr>, origin <chr>, dest <chr>, air_time <dbl>, distance <dbl>,
#   hour <dbl>, minute <dbl>, time_hour <dttm>

summarize un tibble agrupado por más de una variable.

Cuando se resume un tibble agrupado por más de una variable, cada resumen separa el último grupo.

Para que quede claro lo que está sucediendo, dplyr muestra un mensaje que te dice cómo puedes cambiar este comportamiento:

Note que la salida siguiente está agrupada por año y mes

Código

daily_flights<-daily|>summarize(n = n())
daily_flights

# A tibble: 365 × 4
# Groups:   year, month [12]
    year month   day     n
   <int> <int> <int> <int>
 1  2013     1     1   842
 2  2013     1     2   943
 3  2013     1     3   914
 4  2013     1     4   915
 5  2013     1     5   720
 6  2013     1     6   832
 7  2013     1     7   933
 8  2013     1     8   899
 9  2013     1     9   902
10  2013     1    10   932
# ℹ 355 more rows

summarize un tibble agrupado por más de una variable.

Si quiere mantener los mismos grupos del data agrupado original use la opción .groups = "keep" en summarize.

Código

daily_flights<-daily|>summarize(n = n(), .groups = "keep" )
daily_flights

# A tibble: 365 × 4
# Groups:   year, month, day [365]
    year month   day     n
   <int> <int> <int> <int>
 1  2013     1     1   842
 2  2013     1     2   943
 3  2013     1     3   914
 4  2013     1     4   915
 5  2013     1     5   720
 6  2013     1     6   832
 7  2013     1     7   933
 8  2013     1     8   899
 9  2013     1     9   902
10  2013     1    10   932
# ℹ 355 more rows

summarize un tibble agrupado por más de una variable.

Para que el resultado no quede como un data agrupado use .groups = "drop"

Código

daily_flights<-daily|>summarize(n = n(), .groups = "drop") 
daily_flights

# A tibble: 365 × 4
    year month   day     n
   <int> <int> <int> <int>
 1  2013     1     1   842
 2  2013     1     2   943
 3  2013     1     3   914
 4  2013     1     4   915
 5  2013     1     5   720
 6  2013     1     6   832
 7  2013     1     7   933
 8  2013     1     8   899
 9  2013     1     9   902
10  2013     1    10   932
# ℹ 355 more rows

Desagrupación

Se puede eliminar la agrupación de un marco de datos con ungroup():

Código

daily |> ungroup()

# A tibble: 336,776 × 19
    year month   day dep_time sched_dep_time dep_delay arr_time sched_arr_time
   <int> <int> <int>    <int>          <int>     <dbl>    <int>          <int>
 1  2013     1     1      517            515         2      830            819
 2  2013     1     1      533            529         4      850            830
 3  2013     1     1      542            540         2      923            850
 4  2013     1     1      544            545        -1     1004           1022
 5  2013     1     1      554            600        -6      812            837
 6  2013     1     1      554            558        -4      740            728
 7  2013     1     1      555            600        -5      913            854
 8  2013     1     1      557            600        -3      709            723
 9  2013     1     1      557            600        -3      838            846
10  2013     1     1      558            600        -2      753            745
# ℹ 336,766 more rows
# ℹ 11 more variables: arr_delay <dbl>, carrier <chr>, flight <int>,
#   tailnum <chr>, origin <chr>, dest <chr>, air_time <dbl>, distance <dbl>,
#   hour <dbl>, minute <dbl>, time_hour <dttm>
…
.by (continuación)

Si quieres agrupar por múltiples variables:

Código

flights |> summarize( delay = mean(dep_delay, na.rm = TRUE),
                      n = n(), .by = c(origin, dest) )

# A tibble: 224 × 4
   origin dest  delay     n
   <chr>  <chr> <dbl> <int>
 1 EWR    IAH   11.8   3973
 2 LGA    IAH    9.06  2951
 3 JFK    MIA    9.34  3314
 4 JFK    BQN    6.67   599
 5 LGA    ATL   11.4  10263
 6 EWR    ORD   14.6   6100
 7 EWR    FLL   13.5   3793
 8 LGA    IAD   16.7   1803
 9 JFK    MCO   10.6   5464
10 LGA    ORD   10.7   8857
# ℹ 214 more rows
…
