Visualización de datos en R
…
Comenzarás por determinar cuáles son las variables y observaciones subyacentes.

A veces es fácil; otras veces, tendrás que consultar con quienes generaron los datos originalmente.

A continuación, organizaremos datos para obtener un formato organizado, con las variables en las columnas y las observaciones en las filas.

Pivoteo de datos

tidyr ofrece dos funciones para pivotar datos: pivot_longer() y pivot_wider().

Empezaremos con pivot_longer(), ya que es el caso más común

Usaremos el data billboard que registra el ranking Billboard de las canciones en el año 2000:

# A tibble: 317 × 79
   artist     track date.entered   wk1   wk2   wk3   wk4   wk5   wk6   wk7   wk8
   <chr>      <chr> <date>       <dbl> <dbl> <dbl> <dbl> <dbl> <dbl> <dbl> <dbl>
 1 2 Pac      Baby… 2000-02-26      87    82    72    77    87    94    99    NA
 2 2Ge+her    The … 2000-09-02      91    87    92    NA    NA    NA    NA    NA
 3 3 Doors D… Kryp… 2000-04-08      81    70    68    67    66    57    54    53
 4 3 Doors D… Loser 2000-10-21      76    76    72    69    67    65    55    59
 5 504 Boyz   Wobb… 2000-04-15      57    34    25    17    17    31    36    49
 6 98^0       Give… 2000-08-19      51    39    34    26    26    19     2     2
 7 A*Teens    Danc… 2000-07-08      97    97    96    95   100    NA    NA    NA
 8 Aaliyah    I Do… 2000-01-29      84    62    51    41    38    35    35    38
 9 Aaliyah    Try … 2000-03-18      59    53    38    28    21    18    16    14
10 Adams, Yo… Open… 2000-08-26      76    76    74    69    68    67    61    58
# ℹ 307 more rows
# ℹ 68 more variables: wk9 <dbl>, wk10 <dbl>, wk11 <dbl>, wk12 <dbl>,
#   wk13 <dbl>, wk14 <dbl>, wk15 <dbl>, wk16 <dbl>, wk17 <dbl>, wk18 <dbl>,
#   wk19 <dbl>, wk20 <dbl>, wk21 <dbl>, wk22 <dbl>, wk23 <dbl>, wk24 <dbl>,
#   wk25 <dbl>, wk26 <dbl>, wk27 <dbl>, wk28 <dbl>, wk29 <dbl>, wk30 <dbl>,
#   wk31 <dbl>, wk32 <dbl>, wk33 <dbl>, wk34 <dbl>, wk35 <dbl>, wk36 <dbl>,
#   wk37 <dbl>, wk38 <dbl>, wk39 <dbl>, wk40 <dbl>, wk41 <dbl>, wk42 <dbl>, …
…
Aquí, los nombres de las columnas representan una variable (la semana) y los valores de las celdas representan otra variable (la posición).

El data billboard, pivot_longer()

Para organizar estos datos, usaremos pivot_longer()

Código

billboard |> pivot_longer( 
  cols = starts_with("wk"), 
  names_to = "week",
  values_to = "rank" )

# A tibble: 24,092 × 5
   artist track                   date.entered week   rank
   <chr>  <chr>                   <date>       <chr> <dbl>
 1 2 Pac  Baby Don't Cry (Keep... 2000-02-26   wk1      87
 2 2 Pac  Baby Don't Cry (Keep... 2000-02-26   wk2      82
 3 2 Pac  Baby Don't Cry (Keep... 2000-02-26   wk3      72
 4 2 Pac  Baby Don't Cry (Keep... 2000-02-26   wk4      77
 5 2 Pac  Baby Don't Cry (Keep... 2000-02-26   wk5      87
 6 2 Pac  Baby Don't Cry (Keep... 2000-02-26   wk6      94
 7 2 Pac  Baby Don't Cry (Keep... 2000-02-26   wk7      99
 8 2 Pac  Baby Don't Cry (Keep... 2000-02-26   wk8      NA
 9 2 Pac  Baby Don't Cry (Keep... 2000-02-26   wk9      NA
10 2 Pac  Baby Don't Cry (Keep... 2000-02-26   wk10     NA
# ℹ 24,082 more rows

Código

billboard |> pivot_longer( cols = starts_with("wk"), names_to = "week", values_to = "rank"
)

# A tibble: 24,092 × 5
   artist track                   date.entered week   rank
   <chr>  <chr>                   <date>       <chr> <dbl>
 1 2 Pac  Baby Don't Cry (Keep... 2000-02-26   wk1      87
 2 2 Pac  Baby Don't Cry (Keep... 2000-02-26   wk2      82
 3 2 Pac  Baby Don't Cry (Keep... 2000-02-26   wk3      72
 4 2 Pac  Baby Don't Cry (Keep... 2000-02-26   wk4      77
 5 2 Pac  Baby Don't Cry (Keep... 2000-02-26   wk5      87
 6 2 Pac  Baby Don't Cry (Keep... 2000-02-26   wk6      94
 7 2 Pac  Baby Don't Cry (Keep... 2000-02-26   wk7      99
 8 2 Pac  Baby Don't Cry (Keep... 2000-02-26   wk8      NA
 9 2 Pac  Baby Don't Cry (Keep... 2000-02-26   wk9      NA
10 2 Pac  Baby Don't Cry (Keep... 2000-02-26   wk10     NA
# ℹ 24,082 more rows
…
Especifica qué columnas deben pivotarse (es decir, qué columnas no son variables).

Este argumento usa la misma sintaxis que select(), por lo que aquí podríamos usar !c(artist, track, date.entered) o starts_with("wk")

names_to: especifica el nombre de la columna donde se guardarán los nombres de las semanas

values_to: especifica el nombre de la columna donde se guardarán los valores de las celdas

Explicación II

Tenga en cuenta que en el código week y rank están entre comillas porque son variables nuevas que estamos creando; aún no existen en los datos cuando ejecutamos la llamada pivot_longer().

Porqué los NA ?

# A tibble: 24,092 × 5
   artist track                   date.entered week   rank
   <chr>  <chr>                   <date>       <chr> <dbl>
 1 2 Pac  Baby Don't Cry (Keep... 2000-02-26   wk1      87
 2 2 Pac  Baby Don't Cry (Keep... 2000-02-26   wk2      82
 3 2 Pac  Baby Don't Cry (Keep... 2000-02-26   wk3      72
 4 2 Pac  Baby Don't Cry (Keep... 2000-02-26   wk4      77
 5 2 Pac  Baby Don't Cry (Keep... 2000-02-26   wk5      87
 6 2 Pac  Baby Don't Cry (Keep... 2000-02-26   wk6      94
 7 2 Pac  Baby Don't Cry (Keep... 2000-02-26   wk7      99
 8 2 Pac  Baby Don't Cry (Keep... 2000-02-26   wk8      NA
 9 2 Pac  Baby Don't Cry (Keep... 2000-02-26   wk9      NA
10 2 Pac  Baby Don't Cry (Keep... 2000-02-26   wk10     NA
# ℹ 24,082 more rows
…
Uso de values_drop_na= TRUE

Podemos pedirle a pivot_longer() que se deshaga de ellas con la opción values_drop_na= TRUE

Código

billboard |> pivot_longer(cols=
                starts_with("wk"),
                names_to = "week",
                values_to = "rank",
                values_drop_na= TRUE )

Sin faltantes

# A tibble: 5,307 × 5
   artist  track                   date.entered week   rank
   <chr>   <chr>                   <date>       <chr> <dbl>
 1 2 Pac   Baby Don't Cry (Keep... 2000-02-26   wk1      87
 2 2 Pac   Baby Don't Cry (Keep... 2000-02-26   wk2      82
 3 2 Pac   Baby Don't Cry (Keep... 2000-02-26   wk3      72
 4 2 Pac   Baby Don't Cry (Keep... 2000-02-26   wk4      77
 5 2 Pac   Baby Don't Cry (Keep... 2000-02-26   wk5      87
 6 2 Pac   Baby Don't Cry (Keep... 2000-02-26   wk6      94
 7 2 Pac   Baby Don't Cry (Keep... 2000-02-26   wk7      99
 8 2Ge+her The Hardest Part Of ... 2000-09-02   wk1      91
 9 2Ge+her The Hardest Part Of ... 2000-09-02   wk2      87
10 2Ge+her The Hardest Part Of ... 2000-09-02   wk3      92
# ℹ 5,297 more rows
…
parse_number()

Código

billboard_l<- billboard |> 
  pivot_longer( cols = starts_with("wk"),
                names_to = "week",
                values_to = "rank",
                values_drop_na =TRUE ) |>     
                mutate(week = 
                parse_number(week))
billboard_l

# A tibble: 5,307 × 5
   artist  track                   date.entered  week  rank
   <chr>   <chr>                   <date>       <dbl> <dbl>
 1 2 Pac   Baby Don't Cry (Keep... 2000-02-26       1    87
 2 2 Pac   Baby Don't Cry (Keep... 2000-02-26       2    82
 3 2 Pac   Baby Don't Cry (Keep... 2000-02-26       3    72
 4 2 Pac   Baby Don't Cry (Keep... 2000-02-26       4    77
 5 2 Pac   Baby Don't Cry (Keep... 2000-02-26       5    87
 6 2 Pac   Baby Don't Cry (Keep... 2000-02-26       6    94
 7 2 Pac   Baby Don't Cry (Keep... 2000-02-26       7    99
 8 2Ge+her The Hardest Part Of ... 2000-09-02       1    91
 9 2Ge+her The Hardest Part Of ... 2000-09-02       2    87
10 2Ge+her The Hardest Part Of ... 2000-09-02       3    92
# ℹ 5,297 more rows
…
  PISCINA dia OXIGESUP OXIGEFON TEMPSUP TEMPFON SALINSUP SALINFON TRANSP  NIVEL
1       2   1     5.20     4.80   29.67   29.00     7.67     7.67   0.38 -73.67
2       2   2     4.47     4.13   29.67   29.00     8.00     8.00   0.33 -11.33
3       2   3     4.53     4.20   30.00   29.00     9.00     9.00   0.34  -4.33
4       2   4     5.07     4.53   29.67   28.67    10.00    10.00   0.25  -6.00
5       2   5     4.13     3.87   29.00   28.00    12.00    12.00   0.23  -9.00
6       2   6     4.40     3.87   28.67   27.67    14.00    14.00   0.28  -9.67

Ejercicio usar pivot_longer()

Organizar los datos de tal forma que OXIGESUP OXIGEFON queden en una sola columna como se muestra a continuación. 

# A tibble: 304 × 4
   PISCINA   dia Sitio    Oxigeno
     <int> <int> <chr>      <dbl>
 1       2     1 OXIGESUP    5.2 
 2       2     1 OXIGEFON    4.8 
 3       2     2 OXIGESUP    4.47
 4       2     2 OXIGEFON    4.13
 5       2     3 OXIGESUP    4.53
 6       2     3 OXIGEFON    4.2 
 7       2     4 OXIGESUP    5.07
 8       2     4 OXIGEFON    4.53
 9       2     5 OXIGESUP    4.13
10       2     5 OXIGEFON    3.87
# ℹ 294 more rows
…
Muchas variables en los nombres de columnas

Una situación más compleja se presenta cuando se tienen múltiples datos agrupados en los nombres de las columnas y se desea almacenarlos en nuevas variables independientes.

Por ejemplo, tomemos el conjunto de datos who2, la fuente de las tablas 1 2 y 3 anteriores.

Código

who2

# A tibble: 7,240 × 58
   country      year sp_m_014 sp_m_1524 sp_m_2534 sp_m_3544 sp_m_4554 sp_m_5564
   <chr>       <dbl>    <dbl>     <dbl>     <dbl>     <dbl>     <dbl>     <dbl>
 1 Afghanistan  1980       NA        NA        NA        NA        NA        NA
 2 Afghanistan  1981       NA        NA        NA        NA        NA        NA
 3 Afghanistan  1982       NA        NA        NA        NA        NA        NA
 4 Afghanistan  1983       NA        NA        NA        NA        NA        NA
 5 Afghanistan  1984       NA        NA        NA        NA        NA        NA
 6 Afghanistan  1985       NA        NA        NA        NA        NA        NA
 7 Afghanistan  1986       NA        NA        NA        NA        NA        NA
 8 Afghanistan  1987       NA        NA        NA        NA        NA        NA
 9 Afghanistan  1988       NA        NA        NA        NA        NA        NA
10 Afghanistan  1989       NA        NA        NA        NA        NA        NA
# ℹ 7,230 more rows
# ℹ 50 more variables: sp_m_65 <dbl>, sp_f_014 <dbl>, sp_f_1524 <dbl>,
#   sp_f_2534 <dbl>, sp_f_3544 <dbl>, sp_f_4554 <dbl>, sp_f_5564 <dbl>,
#   sp_f_65 <dbl>, sn_m_014 <dbl>, sn_m_1524 <dbl>, sn_m_2534 <dbl>,
#   sn_m_3544 <dbl>, sn_m_4554 <dbl>, sn_m_5564 <dbl>, sn_m_65 <dbl>,
#   sn_f_014 <dbl>, sn_f_1524 <dbl>, sn_f_2534 <dbl>, sn_f_3544 <dbl>,
#   sn_f_4554 <dbl>, sn_f_5564 <dbl>, sn_f_65 <dbl>, ep_m_014 <dbl>, …
…
Así como un nombre de columna para values_to

who2

Código

who2|>pivot_longer(
cols = !(country:year),
names_to = c("diagnosis", "gender", "age"),
names_sep = "_",
values_to = "count"
)

# A tibble: 405,440 × 6
   country      year diagnosis gender age   count
   <chr>       <dbl> <chr>     <chr>  <chr> <dbl>
 1 Afghanistan  1980 sp        m      014      NA
 2 Afghanistan  1980 sp        m      1524     NA
 3 Afghanistan  1980 sp        m      2534     NA
 4 Afghanistan  1980 sp        m      3544     NA
 5 Afghanistan  1980 sp        m      4554     NA
 6 Afghanistan  1980 sp        m      5564     NA
 7 Afghanistan  1980 sp        m      65       NA
 8 Afghanistan  1980 sp        f      014      NA
 9 Afghanistan  1980 sp        f      1524     NA
10 Afghanistan  1980 sp        f      2534     NA
# ℹ 405,430 more rows
…
pivot_wider()

Código

oxigeno|>pivot_wider(
names_from = Sitio,
values_from = Oxigeno
)

# A tibble: 152 × 4
   PISCINA   dia OXIGESUP OXIGEFON
     <int> <int>    <dbl>    <dbl>
 1       2     1     5.2      4.8 
 2       2     2     4.47     4.13
 3       2     3     4.53     4.2 
 4       2     4     5.07     4.53
 5       2     5     4.13     3.87
 6       2     6     4.4      3.87
 7       2     7     4.2      3.93
 8       2     8     3.33     3.13
 9       2     9     3.6      3.27
10       2    10     2.67     2.47
# ℹ 142 more rows
…
Otro ejemplo

Comenzaremos analizando cms_patient_experience, un conjunto de datos de los Centros de Servicios de Medicare y Medicaid que recopila datos sobre las experiencias de los pacientes:

cms_patient_experience data

Código

cms_patient_experience

# A tibble: 500 × 5
   org_pac_id org_nm                           measure_cd measure_title prf_rate
   <chr>      <chr>                            <chr>      <chr>            <dbl>
 1 0446157747 USC CARE MEDICAL GROUP INC       CAHPS_GRP… CAHPS for MI…       63
 2 0446157747 USC CARE MEDICAL GROUP INC       CAHPS_GRP… CAHPS for MI…       87
 3 0446157747 USC CARE MEDICAL GROUP INC       CAHPS_GRP… CAHPS for MI…       86
 4 0446157747 USC CARE MEDICAL GROUP INC       CAHPS_GRP… CAHPS for MI…       57
 5 0446157747 USC CARE MEDICAL GROUP INC       CAHPS_GRP… CAHPS for MI…       85
 6 0446157747 USC CARE MEDICAL GROUP INC       CAHPS_GRP… CAHPS for MI…       24
 7 0446162697 ASSOCIATION OF UNIVERSITY PHYSI… CAHPS_GRP… CAHPS for MI…       59
 8 0446162697 ASSOCIATION OF UNIVERSITY PHYSI… CAHPS_GRP… CAHPS for MI…       85
 9 0446162697 ASSOCIATION OF UNIVERSITY PHYSI… CAHPS_GRP… CAHPS for MI…       83
10 0446162697 ASSOCIATION OF UNIVERSITY PHYSI… CAHPS_GRP… CAHPS for MI…       63
# ℹ 490 more rows
…
Por ahora, usaremos measure_cd como fuente para los nuevos nombres de columna, pero en un análisis real, podrías crear tus propios nombres de variable, que sean breves y con significado.

pivot_wider() tiene la interfaz opuesta a pivot_longer(): en lugar de elegir nuevos nombres de columnas, necesitamos proporcionar las columnas existentes que definen los valores (values_from) y el nombre de la columna (names_from):

pivot_wider()

Código

cms_patient_experience |>
pivot_wider(
names_from = measure_cd,
values_from = prf_rate
)

# A tibble: 500 × 9
   org_pac_id org_nm           measure_title CAHPS_GRP_1 CAHPS_GRP_2 CAHPS_GRP_3
   <chr>      <chr>            <chr>               <dbl>       <dbl>       <dbl>
 1 0446157747 USC CARE MEDICA… CAHPS for MI…          63          NA          NA
 2 0446157747 USC CARE MEDICA… CAHPS for MI…          NA          87          NA
 3 0446157747 USC CARE MEDICA… CAHPS for MI…          NA          NA          86
 4 0446157747 USC CARE MEDICA… CAHPS for MI…          NA          NA          NA
 5 0446157747 USC CARE MEDICA… CAHPS for MI…          NA          NA          NA
 6 0446157747 USC CARE MEDICA… CAHPS for MI…          NA          NA          NA
 7 0446162697 ASSOCIATION OF … CAHPS for MI…          59          NA          NA
 8 0446162697 ASSOCIATION OF … CAHPS for MI…          NA          85          NA
 9 0446162697 ASSOCIATION OF … CAHPS for MI…          NA          NA          83
10 0446162697 ASSOCIATION OF … CAHPS for MI…          NA          NA          NA
# ℹ 490 more rows
# ℹ 3 more variables: CAHPS_GRP_5 <dbl>, CAHPS_GRP_8 <dbl>, CAHPS_GRP_12 <dbl>
…
Esto se debe a que también necesitamos indicar a pivot_wider() qué columna o columnas tienen valores que identifican de forma única cada fila; en este caso, son las variables que empiezan por “org”:

Código

cms_patient_experience |>
pivot_wider(
id_cols = starts_with("org"),
names_from = measure_cd,
values_from = prf_rate
) 

pivot_wider()

# A tibble: 95 × 8
   org_pac_id org_nm CAHPS_GRP_1 CAHPS_GRP_2 CAHPS_GRP_3 CAHPS_GRP_5 CAHPS_GRP_8
   <chr>      <chr>        <dbl>       <dbl>       <dbl>       <dbl>       <dbl>
 1 0446157747 USC C…          63          87          86          57          85
 2 0446162697 ASSOC…          59          85          83          63          88
 3 0547164295 BEAVE…          49          NA          75          44          73
 4 0749333730 CAPE …          67          84          85          65          82
 5 0840104360 ALLIA…          66          87          87          64          87
 6 0840109864 REX H…          73          87          84          67          91
 7 0840513552 SCL H…          58          83          76          58          78
 8 0941545784 GRITM…          46          86          81          54          NA
 9 1052612785 COMMU…          65          84          80          58          87
10 1254237779 OUR L…          61          NA          NA          65          NA
# ℹ 85 more rows
# ℹ 1 more variable: CAHPS_GRP_12 <dbl>
…
